%YAML 1.1
%TAG !u! tag:unity3d.com,2011:
--- !u!1045 &1
EditorBuildSettings:
  m_ObjectHideFlags: 0
  serializedVersion: 2
  m_Scenes:
  - enabled: 1
    path: Assets/Scenes/Menu.unity
    guid: cdea6fee3f135294aa4e6ab22d36bd11
  - enabled: 1
    path: Assets/Scenes/level1.unity
    guid: 7968077271d50c04ca93025f26852f3f
  - enabled: 1
    path: Assets/Scenes/level2.unity
    guid: 5f3c2ec538483a94399903bf0a932c16
  - enabled: 1
    path: Assets/Scenes/level3.unity
    guid: 7513a87b731864541a5b2c6f192fcccf
  m_configObjects: {}
