%YAML 1.1
%TAG !u! tag:unity3d.com,2011:
--- !u!114 &11400000
MonoBehaviour:
  m_ObjectHideFlags: 0
  m_CorrespondingSourceObject: {fileID: 0}
  m_PrefabInstance: {fileID: 0}
  m_PrefabAsset: {fileID: 0}
  m_GameObject: {fileID: 0}
  m_Enabled: 1
  m_EditorHideFlags: 0
  m_Script: {fileID: 11500000, guid: a3ed094c738231d4b8d4023ce4dcf1d8, type: 3}
  m_Name: PlatformBrush
  m_EditorClassIdentifier: 
  m_Cells:
  - m_Tile: {fileID: 11400000, guid: fb5d954936c8d124d8907c0a7d3bc651, type: 2}
    m_Matrix:
      e00: 1
      e01: 0
      e02: 0
      e03: 0
      e10: 0
      e11: 1
      e12: 0
      e13: 0
      e20: 0
      e21: 0
      e22: 1
      e23: 0
      e30: 0
      e31: 0
      e32: 0
      e33: 1
    m_Color: {r: 1, g: 1, b: 1, a: 1}
  m_Size: {x: 1, y: 1, z: 1}
  m_Pivot: {x: 0, y: 0, z: 0}
  m_CanChangeZPosition: 0
  _platform: {fileID: 6912401527486209849, guid: a0cbc1587917fe74f8cf20d202f9a97a,
    type: 3}
  zPos: 0
  currentSprite: {fileID: 21300000, guid: 82ead5410e5e1244cadaf0322b919c95, type: 3}
